<?xml version="1.0" encoding="utf-8"?>
<!-- Generator: Adobe Illustrator 24.0.1, SVG Export Plug-In . SVG Version: 6.00 Build 0)  -->
<svg version="1.1" id="Слой_1" xmlns="http://www.w3.org/2000/svg" xmlns:xlink="http://www.w3.org/1999/xlink" x="0px" y="0px"
	 viewBox="0 0 251.41 80.04" style="enable-background:new 0 0 251.41 80.04;" xml:space="preserve">
<style type="text/css">
	.st0{fill:url(#SVGID_1_);}
	.st1{fill:#2E2744;}
	.st2{font-family:'PFDinDisplayPro-Black';}
	.st3{font-size:44.6553px;}
	.st4{fill:#00B4E9;}
	.st5{font-family:'PFDinDisplayPro-Italic';}
	.st6{font-size:13.4077px;}
	.st7{letter-spacing:1;}
</style>
<g>
	<g>
		<g>
			<defs>
				<path id="XMLID_3_" d="M14.62,9.58c4.91-3.09,10.59-4.74,16.53-4.74c8.32,0,16.15,3.24,22.03,9.12
					c9.83,9.83,11.7,24.66,5.61,36.4c-1.33,2.58-3.05,5.01-5.16,7.2c-0.21-4.31-1.88-8.53-4.28-12.41
					c-5.67-9.16-15.41-16.42-19.69-18.47c0.24,0.08,12.4,3.01,21.8,10.88c0.44-5.72-1.53-11.59-5.91-15.97
					c-3.98-3.98-9.19-5.97-14.41-5.97c-3.98,0-7.95,1.16-11.38,3.47c-1,0.68-1.96,1.45-2.85,2.33c-1.71-3.51-3.11-7.1-3.93-10.74
					C13.52,10.29,14.07,9.92,14.62,9.58z"/>
			</defs>
			
				<linearGradient id="XMLID_2_" gradientUnits="userSpaceOnUse" x1="461.5084" y1="50.2495" x2="526.1395" y2="4.6176" gradientTransform="matrix(-1 0 0 1 535.8366 0)">
				<stop  offset="0" style="stop-color:#00B4E9"/>
				<stop  offset="0.0925" style="stop-color:#09ADE2"/>
				<stop  offset="0.2414" style="stop-color:#209BCF"/>
				<stop  offset="0.4283" style="stop-color:#477DAF"/>
				<stop  offset="0.6457" style="stop-color:#7D5384"/>
				<stop  offset="0.886" style="stop-color:#C01E4D"/>
				<stop  offset="1" style="stop-color:#E30331"/>
			</linearGradient>
			<use xlink:href="#XMLID_3_"  style="overflow:visible;fill:url(#XMLID_2_);"/>
			<clipPath id="XMLID_4_">
				<use xlink:href="#XMLID_3_"  style="overflow:visible;"/>
			</clipPath>
		</g>
		
			<linearGradient id="SVGID_1_" gradientUnits="userSpaceOnUse" x1="476.4567" y1="66.5412" x2="544.4142" y2="18.5607" gradientTransform="matrix(-1 0 0 1 535.8366 0)">
			<stop  offset="0" style="stop-color:#00B4E9"/>
			<stop  offset="0.0925" style="stop-color:#09ADE2"/>
			<stop  offset="0.2414" style="stop-color:#209BCF"/>
			<stop  offset="0.4283" style="stop-color:#477DAF"/>
			<stop  offset="0.6457" style="stop-color:#7D5384"/>
			<stop  offset="0.886" style="stop-color:#C01E4D"/>
			<stop  offset="1" style="stop-color:#E30331"/>
		</linearGradient>
		<path class="st0" d="M3.61,21.42c1.32-2.5,3-4.82,5-6.92c0.16,4.35,1.27,8.89,3.71,13.72c1.44,2.85,3.34,5.81,5.78,8.88
			c0,0-3.14-1.61-6.89-5.29c-0.29,1.38-0.44,2.78-0.44,4.18c0,5.22,1.99,10.43,5.97,14.41l14.41,14.41
			c10.33-10.33-5.74-25.9-14.23-43.39c-1.71-3.51-3.11-7.1-3.93-10.74C12.2,7.15,11.95,3.59,12.49,0c0.08,3.23,0.86,6.42,2.13,9.58
			c1.28,3.21,3.07,6.37,5.15,9.51c7.75,11.72,19.45,22.92,23.54,33.57c2.56,6.64,2.15,13.06-4.01,19.25
			c-0.01,0.01-0.03,0.03-0.05,0.05l-8.1,8.09L9.12,58.02C3.24,52.13,0,44.31,0,35.99C0,30.83,1.25,25.85,3.61,21.42z"/>
	</g>
</g>
<text transform="matrix(1.0007 0 0 1 68.3153 49.3518)" class="st1 st2 st3">ВОСТОК</text>
<text transform="matrix(1 0 0 1 68.4877 65.78)" class="st4 st5 st6 st7">системы пожаротушения</text>
</svg>
